…
## Querying with DuckDB

DuckDB will automatically detect a dataframe based on variable name, so you can query it directly using `duckdb.sql()`.


```python
import duckdb

duckdb.sql("SELECT * FROM league_table")
```

<blockquote>

    ┌──────────┬─────────────────────┬────────┬───────┬───────┬───────┬──────────┬──────────────┬────────────────┬────────┐
    │ Position │        Team         │ Played │  Won  │ Drawn │ Lost  │ GoalsFor │ GoalsAgainst │ GoalDifference │ Points │
    │  int64   │       varchar       │ int64  │ int64 │ int64 │ int64 │  int64   │    int64     │     int64      │ int64  │
    ├──────────┼─────────────────────┼────────┼───────┼───────┼───────┼──────────┼──────────────┼────────────────┼────────┤
    │        1 │ Stockport County    │     42 │    24 │    11 │     7 │       84 │           42 │             42 │     83 │
    │        2 │ Wrexham             │     43 │    23 │    10 │    10 │       78 │           51 │             27 │     79 │
    │        3 │ Mansfield Town      │     42 │    21 │    13 │     8 │       81 │           43 │             38 │     76 │
    │        4 │ Milton Keynes Dons  │     43 │    22 │     8 │    13 │       73 │           57 │             16 │     74 │
    │        5 │ Crewe Alexandra     │     43 │    19 │    13 │    11 │       68 │           58 │             10 │     70 │
    │        6 │ Barrow              │     41 │    18 │    13 │    10 │       57 │           45 │             12 │     67 │
    │        7 │ Crawley Town        │     42 │    20 │     5 │    17 │       66 │           61 │              5 │     65 │
    │        8 │ AFC Wimbledon       │     43 │    16 │    14 │    13 │       55 │           44 │             11 │     62 │
    │        9 │ Walsall             │     42 │    17 │    11 │    14 │       63 │           61 │              2 │     62 │
    │       10 │ Doncaster Rovers    │     42 │    18 │     7 │    17 │       59 │           63 │             -4 │     61 │
    │        · │      ·              │      · │     · │     · │     · │        · │            · │              · │      · │
    │        · │      ·              │      · │     · │     · │     · │        · │            · │              · │      · │
    │        · │      ·              │      · │     · │     · │     · │        · │            · │              · │      · │
    │       15 │ Notts County        │     42 │    16 │     7 │    19 │       83 │           79 │              4 │     55 │
    │       16 │ Newport County      │     43 │    16 │     7 │    20 │       60 │           69 │             -9 │     55 │
    │       17 │ Accrington Stanley  │     42 │    15 │     9 │    18 │       56 │           60 │             -4 │     54 │
    │       18 │ Tranmere Rovers     │     43 │    15 │     6 │    22 │       61 │           63 │             -2 │     51 │
    │       19 │ Swindon Town        │     42 │    13 │    11 │    18 │       70 │           74 │             -4 │     50 │
    │       20 │ Salford City        │     43 │    12 │    11 │    20 │       62 │           78 │            -16 │     47 │
    │       21 │ Grimsby Town        │     42 │     9 │    16 │    17 │       52 │           70 │            -18 │     43 │
    │       22 │ Sutton United       │     43 │     9 │    12 │    22 │       51 │           76 │            -25 │     39 │
    │       23 │ Colchester United   │     41 │     9 │    11 │    21 │       52 │           72 │            -20 │     38 │
    │       24 │ Forest Green Rovers │     43 │     9 │     9 │    25 │       41 │           71 │            -30 │     36 │
    ├──────────┴─────────────────────┴────────┴───────┴───────┴───────┴──────────┴──────────────┴────────────────┴────────┤
    │ 24 rows (20 shown)                                                                                       10 columns │
…
